seq/counter/counter_rc/counter_rc_tb_monitor.txt
Vivado Simulator 2019.2
Time resolution is 1 ps
time=   0ns clk=0 rst=1 enb=0 q=x cy=0
time=   5ns clk=1 rst=1 enb=0 q=0 cy=0
time=   6ns clk=1 rst=0 enb=0 q=0 cy=0
time=  10ns clk=0 rst=0 enb=0 q=0 cy=0
time=  15ns clk=1 rst=0 enb=0 q=0 cy=0
time=  16ns clk=1 rst=0 enb=1 q=0 cy=0
time=  20ns clk=0 rst=0 enb=1 q=0 cy=0
time=  25ns clk=1 rst=0 enb=1 q=1 cy=0
time=  30ns clk=0 rst=0 enb=1 q=1 cy=0
time=  35ns clk=1 rst=0 enb=1 q=2 cy=0
time=  40ns clk=0 rst=0 enb=1 q=2 cy=0
time=  45ns clk=1 rst=0 enb=1 q=3 cy=0
time=  50ns clk=0 rst=0 enb=1 q=3 cy=0
time=  55ns clk=1 rst=0 enb=1 q=4 cy=0
time=  60ns clk=0 rst=0 enb=1 q=4 cy=0
time=  65ns clk=1 rst=0 enb=1 q=5 cy=0
time=  70ns clk=0 rst=0 enb=1 q=5 cy=0
time=  75ns clk=1 rst=0 enb=1 q=6 cy=0
time=  80ns clk=0 rst=0 enb=1 q=6 cy=0
time=  85ns clk=1 rst=0 enb=1 q=7 cy=0
time=  90ns clk=0 rst=0 enb=1 q=7 cy=0
time=  95ns clk=1 rst=0 enb=1 q=8 cy=0
time= 100ns clk=0 rst=0 enb=1 q=8 cy=0
time= 105ns clk=1 rst=0 enb=1 q=9 cy=0
time= 110ns clk=0 rst=0 enb=1 q=9 cy=0
time= 115ns clk=1 rst=0 enb=1 q=a cy=0
time= 120ns clk=0 rst=0 enb=1 q=a cy=0
time= 125ns clk=1 rst=0 enb=1 q=b cy=0
time= 130ns clk=0 rst=0 enb=1 q=b cy=0
time= 135ns clk=1 rst=0 enb=1 q=c cy=0
time= 140ns clk=0 rst=0 enb=1 q=c cy=0
time= 145ns clk=1 rst=0 enb=1 q=d cy=0
time= 150ns clk=0 rst=0 enb=1 q=d cy=0
time= 155ns clk=1 rst=0 enb=1 q=e cy=0
time= 160ns clk=0 rst=0 enb=1 q=e cy=0
time= 165ns clk=1 rst=0 enb=1 q=f cy=1
time= 166ns clk=1 rst=0 enb=0 q=f cy=0
time= 170ns clk=0 rst=0 enb=0 q=f cy=0
time= 171ns clk=0 rst=0 enb=1 q=f cy=1
time= 175ns clk=1 rst=0 enb=1 q=0 cy=0
time= 180ns clk=0 rst=0 enb=1 q=0 cy=0
time= 185ns clk=1 rst=0 enb=1 q=1 cy=0
time= 190ns clk=0 rst=0 enb=1 q=1 cy=0
time= 195ns clk=1 rst=0 enb=1 q=2 cy=0
time= 196ns clk=1 rst=1 enb=1 q=2 cy=0
time= 200ns clk=0 rst=1 enb=1 q=2 cy=0
time= 205ns clk=1 rst=1 enb=1 q=0 cy=0
time= 206ns clk=1 rst=0 enb=1 q=0 cy=0
time= 210ns clk=0 rst=0 enb=1 q=0 cy=0
time= 215ns clk=1 rst=0 enb=1 q=1 cy=0
time= 216ns clk=1 rst=0 enb=0 q=1 cy=0
time= 220ns clk=0 rst=0 enb=0 q=1 cy=0
time= 225ns clk=1 rst=0 enb=0 q=1 cy=0
time= 226ns clk=1 rst=0 enb=1 q=1 cy=0
time= 230ns clk=0 rst=0 enb=1 q=1 cy=0
time= 235ns clk=1 rst=0 enb=1 q=2 cy=0
time= 240ns clk=0 rst=0 enb=1 q=2 cy=0
time= 245ns clk=1 rst=0 enb=1 q=3 cy=0
$stop called at time : 246 ns : File "/home/jnestor/github/SV_Examples/seq/counter/counter_rc/counter_rc_tb.sv" Line 32
relaunch_sim: Time (s): cpu = 00:00:08 ; elapsed = 00:00:09 . Memory (MB): peak = 7451.445 ; gain = 16.008 ; free physical = 1872 ; free virtual = 4872
